{
  "name": "Poline",
  "description": "The Poline theme is optimal for retail of plants, flowers, and related products.",
  "author": "lifeboat.app",
  "docs_url": "https://lifeboat.app/user-manual/themes/poline",
  "version": "1.1.2",
  "update_url": "https://gitlab.com/lifeboat_themes/poline/-/archive/main/poline-main.zip",
  "version_ping_url": "https://gitlab.com/lifeboat_themes/poline/-/raw/main/VERSION",
  "custom_fields": {
    "SliderCollection1": {
      "label": "Home: Slider Collection 1",
      "type": "list",
      "data_source": {
        "model": "Collection"
      }
    },
    "SliderCollection2": {
      "label": "Home: Slider Collection 2",
      "type": "list",
      "data_source": {
        "model": "Collection"
      }
    },
    "SliderCollection3": {
      "label": "Home: Slider Collection 3",
      "type": "list",
      "data_source": {
        "model": "Collection"
      }
    },
    "SliderCollection4": {
      "label": "Home: Slider Collection 4",
      "type": "list",
      "data_source": {
        "model": "Collection"
      }
    },
    "BannerCollection1": {
      "label": "Home: Banner Collection 1",
      "type": "list",
      "data_source": {
        "model": "Collection"
      }
    },
    "BannerCollection2": {
      "label": "Home: Banner Collection 2",
      "type": "list",
      "data_source": {
        "model": "Collection"
      }
    },
    "CarouselCollection1": {
      "label": "Home: Carousel Collection 1",
      "type": "list",
      "data_source": {
        "model": "Collection"
      }
    },
    "CarouselCollection2": {
      "label": "Home: Carousel Collection 2",
      "type": "list",
      "data_source": {
        "model": "Collection"
      }
    },
    "CarouselSectionBannerImage": {
      "label": "Carousel Section Banner Image (770x150)",
      "type": "image"
    },
    "CarouselSectionBannerHeading": {
      "label": "Carousel Section Banner Heading",
      "type": "text"
    },
    "FeaturedCollection": {
      "label": "Home: Featured Collection",
      "type": "list",
      "data_source": {
        "model": "Collection"
      }
    },
    "DisplayCollection": {
      "label": "Home: Display Collection",
      "type": "list",
      "data_source": {
        "model": "Collection"
      }
    },
    "BlogPageBanner": {
      "label": "Blog page Banner Image",
      "type": "image"
    },
    "SliderImage": {
      "label": "Home: Slider Image",
      "type": "image",
      "attach_to": "Collection"
    },
    "BannerImage": {
      "label": "Home: Banner Image",
      "type": "image",
      "attach_to": "Collection"
    },
    "CollectionHeading": {
      "label": "Collection Heading",
      "type": "text",
      "attach_to": "Collection"
    },
    "FooterMenu1": {
      "label": "Footer: First Menu",
      "type": "list",
      "data_source": {
        "model": "menu"
      }
    },
    "FooterMenu2": {
      "label": "Footer: Second Menu",
      "type": "list",
      "data_source": {
        "model": "menu"
      }
    },
    "FooterWidget": {
      "label": "Footer: Widget",
      "type": "html"
    },
    "MapLocation": {
      "label": "Map location, shown on the website in the Contact page. Type the store name as it is on Google Maps",
      "type": "text"
    }
  }
}
